<svg xmlns="http://www.w3.org/2000/svg" width="13.911" height="12.157" viewBox="0 0 13.911 12.157">
  <path id="red-heart" d="M6.867,1.925C7.773.98,8.409.163,9.81,0A3.565,3.565,0,0,1,13.516,5.03a11.749,11.749,0,0,1-1.993,2.526c-.932.964-1.963,1.909-2.685,2.626L6.868,12.136,5.241,10.569C3.283,8.683.1,6.31-.018,3.369A3.225,3.225,0,0,1,3.406.013C5.077.036,5.783.867,6.867,1.925Z" transform="translate(0.02 0.022)" fill="#ff5159" fill-rule="evenodd"/>
</svg>
